…
I will look at the “metabolism of carbohydrates” pathway, which is
downregulated in gastric cancer.

``` r
meta <- read_xls("./IPA-results/down-genes_diseases_and_functions.xls",
    col_names = TRUE) %>%
    filter(`Diseases or Functions Annotation` == "Metabolism of carbohydrate") %>%
    unnest_tokens(genes, Molecules) %>%
    mutate(genes = toupper(genes)) %>%
    select(genes)

meta
```

    ## # A tibble: 22 × 1
    ##    genes   
    ##    <chr>   
    ##  1 AKR1B10 
    ##  2 ALDH1A1 
    ##  3 B3GALT5 
    ##  4 B3GAT1  
    ##  5 B3GNT8  
    ##  6 B4GALNT2
    ##  7 CD22    
    ##  8 CEBPA   
    ##  9 CSF1R   
    ## 10 GCNT2   
    ## # … with 12 more rows
    ## # ℹ Use `print(n = ...)` to see more rows
…
